{ 
    "Comment": "UPSERT k8s ingress record ",
    "Changes": [
        {
            "Action": "UPSERT",
            "ResourceRecordSet": {
                "Name": "__prefix__.bieber-demo.tk",
                "Type": "A",
                "TTL": 300,
                "ResourceRecords": [
                    {
                        "Value": "__ingress_ip__"
                    }
                ]
            }
        }
    ]
}